{
  "development": {
    "username": "postgres",
    "password": "postgres",
    "database": "produit_db",
    "host": "postgres",
    "port": "5432",
    "dialect": "postgres"
  },
  "test": {
    "username": "postgres",
    "password": "postgres",
    "database": "crud-produit-db",
    "host": "postgres",
    "port": "5432",
    "dialect": "postgres"
  },
  "production": {
    "username": "postgres",
    "password": "postgres",
    "database": "crud-produit-db",
    "host": "postgres",
    "port": "5432",
    "dialect": "postgres"
  }
}
